mt2p4tkf0q,100_mt2p4tkf0q_TVNJHJ1CCnlVVbzYRy72l_6B4pHKXikwGsb534K--isdWIFHeTK9JXSR53B4oQXrUjSpfhrNA0K9ma1QxaM4C6CEloEIzUlRgIitf5w4t38eYPJcHUJi6KdJgMSaYA==.png,8.886757850646973
vr2no2roua,10_vr2no2r0ua_2vHzWEhBcqvKHxYDQE1-gEUihbpj5TzGr5fx7niyZv1E9MhhNEh0nngnNkvPNZLL6qbFX4pz7NEKzFQqw8-EFdU4vokIhOWgH8_bEZgh9rmlKp_nyP-881vJooS0eA==.png,7.733598709106445
y1v6xg9stl,11_y1v6xg9stl_T6Av18wRcpiVGTkCwHbrZh6TgIl5Roao4lXyVYOcbTKPXOxUQ1Ann1E_Ggz5iaKQisVNSZQraXlB565psgNdvLpPjeAHGhJqSzCSHP0gqmTU6Pz5PtUPG4ngk8vTCg==.png,5.654139995574951
yxap9kumpa,12_yxap9kumpa_eSoIKwrBf9iTVo5VOku4iFM2Q1rhRLbMJT_qaQNRqc5PRidXn7bxKD6d--d6qAyOIfEGD7CoTiI4-nPI0vhKmUgc6Uj0LiEvqJtDrdjbtC9cTjEPM1-6xV9wyEYrxw==.png,7.516177415847778
ywprgpsr9r,13_ywprgpsr9r_wRaNDwPxHXfu8KcUXNn2O-YJimj0PfwU-G_sTmnNYdw4Od2d7wElJ8emU44xhLRu3-i0sD40GyAoSYeSrmmUuTt-e7gh5L5ZXrQjzste6r9B9FsgqwkOxi_riwnzrA==.png,9.41946005821228
7a871c214x,14_7a871c214x_TKpyykgXHGJ1wQ2-VmoXAtni53u8lSgkXE3neV9sBneeoIx6bdzSt2pGTFFD8bGGzKs6civxgDvPDAudt3hfromHQo9y9mbc5S9Ch7Q0ka8zcGZhedc5Xzd9caS5CA==.png,5.940687656402588
exldc0j10a,15_exblc0j10a_xV8rNL_idG6jJUqerkv__i4KYkEjUGM_K3MxvbliYpSUFCJ2jNaqxrLYAv3jtPesdowjE8rDQU_qsLtjf-YmLEi7qjYRKQaWradtaZe5lITbaiN4nkKzLVAaUcvngA==.png,9.772778987884521
w34edmkrta,16_w34edmkrta_PkuJu6Po6SLN-Y9fqw59Q4eTmwlFTkpmOvsMf73DsDU4-Et9hNolYY7-HBHO4GxbVZJm0T_mvGpR-EXExVo1bHfCgpFWzpUcgUHCXP2-3KsMrekN3vG7EV1k8Jiw_g==.png,9.012649774551392
uycrbwyb31,17_uycrbwyb3l_rtRTPiztXiTf9stsk9EgwBwYfnA83RacrTX2yeuPd11NfekKOXzTcQPTne9dCY5vh7Tk4UINGnaSnLj_MsKzRkKbtuuuJaZIoGS07c3cwXxg82l19_OUk8WyrV_f-A==.png,8.261436462402344
ctnl6asexp,18_ctnl6asexp_5Ab5JmJpfvwvR6fGTBtWeaNrRcVqy0rc0l1fpG3dk_g0motmROGGZ9HwCloHB9DrwryMucsgN_FuFLZY2QSrSSq5Xsjg137ks5DDcZD6P_5Ynct44xSdWiJc2xBhJA==.png,9.868908166885376
402vokd9vl,19_402vokd9vl_Ae8w_a0iE_1-TWN8EqX7SOfqnHehD9wR3PcZcJ5rMojP__TGuq5uPB4sKNlZgzyPWBamBQ1BHLqZvyxYURClQ3N3Efc4eGtX9YlgP-0MAGsRduMpeqNi1Ra6AowH3A==.png,7.235803842544556
4m5zwkx8zo,1_4m5zwkx8zo_D_zXZX42tNMvLoFUO1LtTKPjBbzrCSf9xVDfmgAzcCC2JrcMyRNQj_cXZq5URp8DAhL5DJAaGmvcTZjtDEF8q1YF5B0Z1xWxhZFLPCzVhkOv3J1an_js9ihVuJaHAg==.png,6.9398274421691895
61vt619fxz,20_6lvt619fxz_og5R-cMLvYyjiuXf1Fx7XIp46jdM47FFOk4f6nDQGYY3n6iNVRgcrsR1Bn2Y70Hfs24WZKn8ixRqTQoDkpT6GnSCHPMFazg1dET9VTEKb6HzLJ2gBUqNSDngk9RDFg==.png,5.596322298049927
p3f1rt1vxh,21_p3f1rt1vxh_t3nFHus3nXK3Luk7udgHhGHm80RRXYcTkSSJtMS8sMr9SZFx52HyiVvAA3MfiDUYgkKzhF50Z_SmAtkewY5x_L_QWvssIyItohX-JuRsY3y-a8cNMJp_xkM-kYPFVg==.png,6.837517499923706
4vnr6dr6za,22_4vnr6dr6za_XwbH6BXiYcWLs_Vpqyjux5vTkor-eYNhuJ9aR3yKb9GODHgemGM7bejD3O7CwsYp4y4qz2-oxRErXpbwH0Fiw0Odg5O2GOOXGbYyZkxd2GL7qOOXgHrh6VNLuJhjzw==.png,10.233239650726318
fa447qxd5d,23_fa4470pd5d_qSc275TRW6w8rhTvR8Q3XDBfStzKdEixECYkZWTTzTtxe8cBGYH94LUKcUSniZR9ETrZME9Rv3ozzvv0bnFkFLjK_5Nd769uZ93pwo8ot3oG5NPAaiYyFLnXRbucpQ==.png,13.533545732498169
6l0uhkb5xj,24_6l0uhkb5xj_Dip4fva5ZwVDAEO775Z9W7XOlRf5vWHrHUp8r0I5bSTaS1CavHovrI6bMtXxqk6HiIzUWdVjZswhmapUf4fGUjIqIWBo_qEAJwZQv84-hDYL8vQUVyDAbrmdiho-dw==.png,16.828561067581177
6910u63fqq,25_69l0u63fqq_YK-wp_xWwPCvcHaml2o0dp-PInPhcsqKdmAq7srGCyJ6PSdMTMBVKB_JX-f5BhLBYN-iaefqkNlqFzmE4tX-y9qo1FwHs9btJEEj9kTIleivYim4G6VLsag2LSmDCg==.png,7.101221084594727
psyvldyv8,26_psyvlclyv8_8Hs3C9EbIWn49BwnDb49uGjImoWvMPW4i6VtZMRibU2y5NcwdBXWlnzYnO5kf3DePwYZQXZCsY_NkPnw8Wyij0h8XN9dTE-SvrCD2gv8dYQL8dzxHcYnSN5uojdNyg==.png,8.069226503372192
yxeqp512h3,27_yxeqp5l2h3_wgxiVjlLHR2VdQBjKCzR7n3KzXVltfWABH6-qM2VzpqaKS1mDKxjGZdTEefv2tb9gs7WcfgV2gGS4hOER8uKeqRYLsCpUg92ZDUcwyOOIaJhYrkGZwAECICssdr39g==.png,9.189039468765259
2k2wxn438q,28_2k2wxn438q_Rg4_sjmgcq5pO9mFyrm2Y8QuT2r2DWF264m4tnMj3vcuqdTuUhOxzY29KSTiYTRa5wFhlob7J73ovQ1rB8Jc0URM7Z0RLrrJf_onPhTrG49kmF_pSnqZcyU4dj4-iw==.png,13.964437484741211
m4cskdy5t9,29_m40skdy5tg_q2T1Cre0B4IHgQ5Kg5eUhqWIC_2_fCLf-F9gHz3-xPOSBtfVIdSYwDukNy26diA07pvRhx0pSoEj-68Z3rntUO1SVt75SYPInFUEBV81wJg41L0sSGhYtdbsm8KyGg==.png,15.196621417999268
mky6h5hrqa,2_mkj6h5hrqa__yJG6FsCidKPT_f473LAUtxVAB1RUTJjMnmH6eUQWvg31ViCvY5C0BOsxxksc1ru1Srgbn5NjKotU4TeYqL9Hfk088q5dQyVFQsi4j20UNW28eDhEyWgCR7wLlAANg==.png,12.107472658157349
qc5dhbsjd,30_qc5dhbsjol_dgntOTEH-I57away0f4okKyeequcAHzmNCPACl4kwsH6qOY_Z8zMrWIp8LL5ooFcC69TsPivXmBlfvaps3kW0JpYGeC5UQfAFzz7vv2MCUg5nMtI1B_sly1AhLUhBA==.png,8.020789861679077
tylww9gukq,31_tylww9gukq_OvgqLAZAwVTVGVHzd0NvUdRQyiJ6WkcjKZnfnQTv6lqi2zdqGuJX6BW9GhQEAWQ48EklrLbbrcuMIaF7GzQ2_xPvlA41ijnd-4eA4_cmXyI4VF28UeXZ9yD3FgdM-w==.png,8.900146722793579
5hjatgp0fc,32_5hjatgp0fc_2HUguwOAz8XWRX-CgoEi7Or69eMPttNTrzZwo34BOPHFFW6anxR-cgDytLzuO5iEAjz--nbQrgDskHSb4tpFKLtum5RLcsOLc4bUh-J-_4W-H9rG506qsmo9fYVsoA==.png,6.812312841415405
42mppr9ef0,33_42mppr9ef0_UnGe2ieEaoKC41uzE0WZsfOVQjU3fHPCtNu6j4RnaOv2a4ktETESrGJKc32dT0rhQ-cSCGwgRByPUNN9HBUxde5B4CaGWGhArIVE4YxookGcnxfrZHWYxuSz1e4HMQ==.png,10.443469524383545
fwics17rws,34_fwics17rws_4KRGho5IhaLIfDwzNmrypDT16UXDTkeOg67liqqek356bjVg0IRzVvn4yebWDImyOx7JktLF64tyS1tgm5nM5VFcPu2PriiERKlP5bq7_PEmuafpKzPgvUOYvWyK-Q==.png,6.3320746421813965
n7leppzfwl,35_n7leppzfwl_4aUhA98lb25W8L2Hf8KgjJrzPSIYvQ6zJL15_6DDCS0SeFNo1FgkinFX-fmTXiiIcAA90gSA5rtNoZQTnRKnN7gniTByvK_kNRQY8GrIyDLZxpPQKUIR2p3fvltGvQ==.png,8.564088106155396
wxjg19dgof,36_wxjg19dgof_5DK9CQWUpPmUgsn8UvVJp0Y5S7uG_BFxpDJcbTi05PRA4YEFfGnRePGjGSQ6WNsAOrw4261t3k4FJzuogS1g3YIqhIJkf61iAWYNyks1iQfD8vo7TX8V-hAgc27vyg==.png,17.420556783676147
ryatsk3t91,37_ryatsk3t9l_fv5nHADYNHnQmXe3AG1X18JWDV-3uJ-8TcnTl-nvIYkz4ZCnpO94ghRJnr9tzUbuuprbVilZod8R2XjiH-HTrpXLVLxEkMVaBAAqyFQiOpFyzKxxX39IKRpMNhwrIA==.png,11.299498319625854
tf72uzjz09,38_tf72uzjzo9_lv2xIPw58j3sCImV98Ix4j-NXG3veAjmPqVIheBuRs9OhI4VQg70dvuU1w7SxHe9Vc6F7NE2f3bkEVCyrsf5ZABJBqCt8pDiJ0GQpk3HW1ymynDjeezO_PeE21bJEw==.png,8.572645664215088
cekkbf2pwm,39_cekkbf2pwm_2XugP984UBbUeyEygTtk099Y2PGwo6qee0M8BkceUx-HtSe0NcygbcNOn5Qe8D6xpFy0n729lp7CfK0voKQ4c33ftAZBHX9xWh4C1s9Rn6rB-BZYc-tZDg1bhNajuA==.png,8.555608749389648
an5qwnqnt,3_an50jwnqnt_AmWkapwwo2KQ8ufquLNEQOIR7zBuYT-fZz4IFCNZ17mPAli0BXbm0klyQflbsnh9NNEt2lifHzRWUFPINxoVEqx0uJPrSE8yUT5NRY6qaHhytR7hxzlU9KJwN-FkFA==.png,12.94792914390564
9rku2sckuz,40_9rku2sckuz_WvEJT7R_JVADRyGqJlhtRSl66F2V4UnbNoooi1ydKsgnjYFO0UAcrmRnMX5fty6PhinsMJdik5XsCAPYe06p_W2nlE0NZZiY7iitELzY4xypf-Hl_S2gn10E3sf4CQ==.png,11.481820344924927
3qhah79dqb,41_3qhah79dqb_FsM6K86DGq6lflkS741V8j38tAuI1j3eSwPagYBNRiUwjDXRydU4FTF0RnyLocPvuJ1J6cOlNz2oOj307Dq-LvbR6NDs_fOk1AxnVPhh-xxjr0xgULWbM5vggH-eRg==.png,9.267492771148682
d6r3nhix8l,42_d6r3nhix8l_lrLgfAk9_8DxG4zyiXLfygJGDY2k_ID-FbCFJ2ZlYnNfK1e0yHztj-PqamZe5oRa4zZ8SgDCsLJIC8MZXIvuWRTpiYxil6o-8tmZCR8afGb0UarkEXOU5Gl9HMBhuQ==.png,12.26081371307373
c5c5vcjjsa,43_c5c5vcjjsa_25pwwZ3bJrb-iFf6mwlGXgFZq_-15VdiYDF2WJq33hzUeygc4Ip9iP3p7b08fiycFsawE10PmpJ8n_PvNnbGtxVry7MlbevA_HugsKsgDVOYo49wU-lGZVu9hZ8oww==.png,5.756042242050171
ycm2pzxw11,44_yom2pzxw1l_Okzm1eFW9AqoCx8CjoMe2rzbeUgH8EyjGeNvs28Su9i1_7mosOLD2W1aAtJM9zEBjRuyyBxqU70oVYhgEpaB-qDF-vz9XX0wahlpa3nRbRUR61UlDOJHIOv0yPlyeQ==.png,8.763888835906982
mvorsdeyvp,45_mvorsdeyvp_a8akITWeTEfkEy4GGEKjFy1ndfpb5AL7qWb3AdE81GQoJnm9W5gEEisxLfP4snbpVedIg6Fayc1IVkyqkN55VdC8CqK8ew4RyMN6RYxax-Pv6zIoEkXBuPRVk_C-qA==.png,6.5333263874053955
b2d9g025u6,46_b2d9g025u6_GOE5VXP5UBNX_tww3Fv32vk1FoJENfMMnMWg5Qd85ECMh6367V-G8PmaT4Lzvbqa0oK1YL7Ze5rmj0cKneRUO0PAZngiWFqWBx93Jd794Vl6Q3LsF2Bq93dabTW_bg==.png,8.029032945632935
qpylokvbeg,47_qpylokvbeg_Byc2mbiS6s8gWVUNvVpAm2ZMexLHYR9U_jJRxf_UwLG-nunrLaM8ghEAP-tgNWdiAVsbQrrvrUx_Xaxi9Vi5KI3U9BnEe3QWf9i_pFcyOu1urCJaeMbsy03cHQ8Q7A==.png,6.227222919464111
kur3xd0620,48_kur3xd0620_gZUFGd67VQ2yDy4fNOAVMBO3xmxDdZhoN2Eze7jwkq5vtaF0inETDo5AOaQhDrXC10d0w5mpJn4yK-Qn1DHoRRBcAOQRp-89RE2p9V04ADnGYw05A2dOsSsKx9wRKQ==.png,8.285131931304932
1bvaj2bk1l,49_1bvaj2bk1l_j6XUpllfpYYMJKcjui8ROZJmZqbMO1hoHNhB9_xcBO7vIfULCThAjTaQeinkW_wq6a89J-6ezPXWX04CNe22ysRWxKeJfiUZkU9rppJ7tiePxYwNPNijIU1V2i4JRg==.png,8.724255800247192
e9yrd3yh5p,4_e9yrd3yh5p_hMb74oYVMXivtyGX3JbITZRaOhvSbYz3BkB1dZfLgiNPYhs0yZ2Aj55-EM44iXL3-WCOxEc73k9gxPr8XY_gQRlBSrBmzyzzZ5q-uMezCufYqYJ0x729RBFWr9p-ng==.png,10.253135204315186
dh5dz572oi,50_oh5dz572oi_m1wgUuQaJy5uN5-CNt6hxp2JAmsVA9v6gHVpm8YkTufByC6mEgd7Up8SCJETreBKL3ik3elLLFgzTx0-kScbdT48nDTcwR4GIyVdfTBVEZ47RyqYa-4almEZFtx7tA==.png,19.268816232681274
d9miq0cmqk,51_d9miq0cmqk_DrJlHjThIo4rRbY2gpSNCYHJgRXURbepc6mWcftxFffdqTV7bxW8d4frwSyx4YZrv9tncyGg5rVi2tlGCdQke16JJ6Sl0KrrTpG0twx817pRbJKCJpkVfgGr-Yk5-g==.png,8.572370052337646
80p8fsip8b,52_80p8fsip8b_AyFaQHzmw6k6FvHYbZWw4Un1Ucq28468nwRo8kpkMY47k1-JJm0w_LlHf5iWbZOn9XXtQA1PI10JvykMgPqKu23Zoc-lMzrQzAUEAmVUqeUsLm7qfj8pD6TRKlgJpw==.png,10.74739146232605
hga962ecp3,53_hgd962ecp3_YvO-G_aFEs3qFZv4eu4Uv9awIt_mTcb0hw1JV86-SX7kyrcHNWz-Bc9obGS5hi1BdzgSxK8UtV9N3dQGnm91zSdk-SLfPimfPX2SH7wZPSajD59cbzHJA0wJgJs_gw==.png,8.98920750617981
dsvn4juuh4,54_dsvn4juuh4_W9LAXhum9vud12jl8QDENL7tCJ80T06uKllbYA2z7ej_kIw3jFYdFiUF7lgU6jzRjV27JHUXZz5IVn5kh0pKGWu7gb0WPuvlzEAm6XyQgtCd21T33ujy-mZfzsbH1g==.png,9.516510963439941
jro87fiti3,55_jro87fiti3_9386fEcakcXbAJpc8L6Yxbv1iOREiCZ8DRv-5fdFOWtBWNlVnnTtXjZMkXzsmX3xil36DW_fZht2o434JNWACx3BTex7LVg02GZBhbcKOw0Hu53_AnSNG5BDWxKENA==.png,6.723613023757935
nj9ib8efjb,56_nj9lb8efjb_wb4ftjVc31BsgUl1ughBKwBM4PvmvJv5hrajRMESyfR_CsEolB-bVHMvG3BLYGqmCDICMZAYgvLPrMC-nu_IIbVuWhmBfhBTysc0x_Iw-88HHf0F5QI4CudUSw_49Q==.png,21.284468412399292
fuitoyg19r,57_fiitoygl9r_1akbc-XJDG-0-THtv0NWRk3F-SnALGp4JyazRwb13RmKnD8Xch1bfabbMR0qlmvDFmzIJ34-l4GlWmvizlrmNxXp74BzLYGoEzG22zyyUV3VC-UQ8O3BQ86Cx7UxvA==.png,9.124267339706421
y6mn9vs2my,58_y6mn9us2my_p2MEDSsxHgnIgo22NLIYj27bD7QvYKGVv_C6dyjW9nTD2o2eM6kL9r_jByXTR5RXcZXeqy3HlOkO4BFWIF5Vzwb6FEHMmohFG9ZwwtTTmT73ul8exG7i-_kEzNLLpw==.png,11.059951782226562
eelo121xjx,59_eelo121xjx_14OQiXGp_79ECfpleWRRftwlhwhqcA3WEUM7iIwQABG9wK0pPbK1fIyBRk4dTfg6B_cE39nhjRCzHIcDopEfUaNjuYJHupdbhBj9--tohy-UxC8bVGmwx7GmyqJyiw==.png,7.147952079772949
vqe5bycroy,5_vqe5bycr0y_8hy1B_Et8th8KNkLGsjHbg2wmc52uxLAVfhgXkG88dwex4UVPl8G1mfyg2UJ6L92Re2BuoPaV3Z6wNpHB0cTnIxsa0i-BjzEMtbWij28rxmJKBy6AtJpqfT-QnGEDQ==.png,10.2603440284729
dm95oabwlb,60_dm95oabwlb_2KaslCesztVqXMed0zCUxhheJkiOou5d6qsMuvKWjXi--De39to7Vm1eC_1G1OBRJfqanesNQGerwwetbqkppkZslOdIDME_dFYafJ6xZZqFQ466X4CJ1w-IfcpNyg==.png,7.500548839569092
51tmnimkfyk,61_51tmimkfyk_TlcWCXtXQXMpegcskNypjscur-WWHKGLUa2grYNKZ5o3XugsKFi0QS6CKP93I5ERPUjtCeK_WvF7rwqwc9TMVuAUWZ8wmfMKp5VrAviXEL9Pd_RgrCuPk-cbSo3NIg==.png,9.972381353378296
1x6x3vg2bv,62_1x6x3vg2bv_bspU90LEtzFD8xU9gyYDxUCDeb0X0QzMhDyFqgSuORj7mZpyJ0Q1cq0KXcdsp1xRhs2GqU9adfRndTuFNhEWCOn284QWm_zJyJBjmmWEdZK6uMjHSMQzUo0da38-rg==.png,8.676664590835571
ovw5xuekel,63_ovw5xuekel_DPwiG-NDFH2DboIUSEaSGXUBSIf1ssTh6kDQprom2-EOqL1k6drqquYIcoahy2v8nwlo5OBZXYt-O2ZvKQ271iarSXrYS0sBHcSXNRgtvbvK2UKyOjwrWW7AkvpNWQ==.png,9.33977484703064
xaplbdz44l,64_xaplbdz44l_gITKJgF2q5kijrJRVHQWxc3ZgfMpC1qFucC7XXoSScha1tA1GjxwSbctsQruDQLLgCyoDppTeM1wxMWh29Mzkw5M9PzoarX-mE01F5e3cKBthIX2yW1rgZ8Z_JhQ1Q==.png,18.988224744796753
ctq3s5nb8i,65_ctq3s5nb8i_sBK1w3c4R5I1BW6T1vsI016fTM6j3pOD7_7whpQjTD5NL4PSezwb3B82-PRmWY7FNpnhW6GoDLI7W3n6uY6Dhjiv7SqJ20xpGpAjDugldORu2XezLP8QZOWz0W52UQ==.png,10.773025751113892
23n9whtox4,66_23n9whtox4_5o-iymxSy1M6PBOdGc4MF18457I5D9UqMhDzLqYkqV1TyeJvDHP8ynQCZVsNVx6r1zj24K6-DR5SLVV9haiCX1kZJEVME53_gbbS9xTa-t3M-R4JDpK9czQ7GZvRuQ==.png,5.692291498184204
afgcxnmd6c,67_afgcxnmd6c_u7OfSk7D238aHyleg0tGRTZpKNHHIySO45VKiip7QObfaYlKBT57wtAdZKjDtwEcwYLF1XKIWJBLsqO1Nx8sh1CfuEHi5haWkbit6rOTyLsrUOjiSlKUYS42sI4QAA==.png,12.683722257614136
upa9oulge2,68_upa90ulge2_7fbmJY8sGnIeXcA925ZPu-eF82mGolM9DiUu4waNFUd2NrKvEpTL99Vp0t4aDWQeLBwWNjinmk5eiJXU91CnyI3-xJeS3HCvawc6UuiF0S5Esq2vwnmUJobrVAzZsQ==.png,10.96471095085144
qoombyrczt,69_qoombyrczt_bR4h_YTnB5X6NnCvcXB7NkqkdwWMdULYz4SXjUuiXfj9g0Cyi2DQuNMmXDRBK-60Hrh5gIMe2Sau_pfrs9iA6dOvh47OY4VrKgi2VSWr6s27EU_DzlLSvEqpM0PERg==.png,9.987756490707397
a1138xur12,6_all38xur12_z8BWn9N7aL4lmVO2sVwl1BPGSmBQ2BeQCr2kX11XXeeHz7VYBzGBKN5I82iFtphEEqXqmsZdneZ4x1h9_vNoDWeGTcj5A8xz2t3VuqO3yZlJ_acYghjq2qNFELDgKg==.png,18.5792179107666
7qzefpf4ba,70_7qzefpf4ba_LeCgimGc1D4HrfApmDmMtS4_IrUxXZN0zumaDt9PMbd7XyzWnBmTq9AlztIjw0_2aTJ6vHMNDvWSaFF1lsqBQ9pTJSNyKjwPR9HHwC0K3dzrKK6ckqs-GPX83W7IjA==.png,20.48513150215149
xyb1sdzas,71_xyb1s0lzas_OKHTg_IHxbIelu4fQ5sDqfy-7a84yhSW1oF5rSbJ_g-yw2tjzDIrThbZ6Vhz20A1j9UEh7V2WVK6mbahd0IBvavy8BapGXq_s1GNkL3BDow1NfUUNtazMYPi-ltxFQ==.png,6.467677354812622
h7wul0z8gy,72_h7wul0z8gy_EcSmzb3WSQfWuf8DbuAk7Kq2vyvy2snt868gMlZogmLRwJoZxxs-tQnbuBkI-3i0NjVpnWRtdCh5CSvzmPmyv--X73F439gvSS8xOdHBaDnTo4eJ82kfyZ2lspbgFg==.png,10.88429594039917
mgefwhx7g9,73_mgefwhx7g9_r8L1TH9OInwUu2eji9M7Vx8huKnV96CrbxBdEJcoNkBiF7EIFaFdZkB-bnmStAH6em7JPWVjH8NCl_0dvbuQ23gWaEHrB37MjGWx4Mo5A8yyKhhwO6nlTtfVNQBzfQ==.png,14.05171275138855
dddlv3huaa,74_dddlv3huaa_MTwTQ0eSrClgMdzEYGsUAkTIlNmXltoh1FmhrN9aCLX1t-UVAwQOADJ03NTqwO_JgzXw-B43-si_fTYVZ4TYribAxFEaI8gG8cnuSslrRz4vK-TXvP35EBWSR7LgiQ==.png,13.420940637588501
exodkjmvvj,75_ex0dkjrrwj_aDMDjiJtQ2QERhBnf6KfRE8yNl4uVEkrSEgOuEE8gl5p-INGOxwW2De1Gvho7zj3JgOgd3QzHJkqGIjMZCcTWM_J_Jz23ivaTy4S4weqLoxYnGZFUht9cOTqb9WZkw==.png,13.820357322692871
y7ndhf64vg,76_y7ndhf64vg_1re6wv1SJLB117sLbMzdFKKCxz4JbzNjAYeBfO6bcffrTT5KB0fWKIV_Ab4hRiqLAysH8hC7O9pp4inZSt8L59YveVdYXQf2aZq74Y6RX7hCmK3XWk_PNdOTT5IDww==.png,10.24471139907837
znhhuiia0p,77_znhhuiia0p_sedtCt2hSmQzP5-LMrOPZBF7kBI8vTwQtQJM8VLjLw9y547DVEoe0ZbP_zqZ6Jg-r9oL60LW4G3Lqq2QhVTDOXvFVonDNjL4oJHHhrbzPt7yl9OsfVM1sNPTRiCusA==.png,12.907633066177368
92q57uo1xq,78_92q57uo1xq_loRUk_HgSYUVoUUoXkzkJfcb9gDz8ffZoQqtBlFDWswZsiTE_n9sCGegtbYFHPm7DDreORWwNPq1tmZrKX9VN2O9xWQ0uVICbAUjJ5siTqbpNEhtBM6rNpa3ts_kBw==.png,6.772118330001831
y44h018qlh,79_y44h0l8qlh_Tn9L9TaFzac_HN1K-PS2FYPYV0Ip0aYqU9415Tpu2pcB4KN9Yrco5q2hI_tm05T7-oY87TR4Kj0Yy92XFs43i6HvMnADVM4URz9YTxMVUhTrsW3OV1u7XQwitZ3E9g==.png,10.47656774520874
czxinbfqzw,7_czxinbfqzw_6tBH_PDRgU80u3sg1CVInSrshHDQ9z7o8Nl_wZy3QhI1r5mVKNRC6abTRKW94rog5K6q-0SfD1typpyQMwkJ5o9azhbB7ZmJevdFbbUaaJ2BvLWqqiESyJoUBSuo9Q==.png,9.018563508987427
ty99qlu3j1,80_ty99qlu3j1_6nIN3xLK56tdZPvs5XdAbSWlhI640Nmmrb0wnmpcyt9pih6tPuy-UXa6M4QFv5BXfPx5orI6zkgT1U4TxJWNpfC51VCWgeUMNC6YtcSnEsaiAqjEmh9GKN2leRSkZQ==.png,12.973120927810669
7amrf4bctj,81_7omrf4bctj_uTjrlIGDs48gBjDgbM85M78yh19yJphK6yAbCwpoK9z0mj5tYxe5_OJNFrE0bvcTe-1ruWL_SzrojRJ5X8h1avZdUCtAXL5-dCJuxQsUIZQr1gEqeFBmTcnv0w1fGg==.png,10.80343246459961
k47cynk5mz,82_k47cynk5mz_cMajcjuIBBuG_XAVs8Pefq6Nv07gl1VK987vzmmYtMM1kGphOzyLSDurOGLDLeBGsI__-FcrKMWT3V1tVOXuGlc4CxZRt_GUlcm838gSsAsn2HwYisMyVoGvostQOg==.png,8.509094476699829
n522h7cwc4,83_n522h7cwe4_t84AG7vbD6_NKfE6cjdkAZYHUwAUVAqufR828v-j9XVquIraAn6jOodWukCgTkipbNl33Kctbyrwa-GSVEv6bql3D9gs_drBo_Ya9a_xNApz2KBR6xUE2tOqLA5Oyg==.png,7.588437080383301
2cam55xpi6,84_2ccm55xpi6_0U_Pc7zpiA1J52yWPCQEklqsls6Y3CL3ovKV1-IN79GGzyb5sDtWLJ5kNGWJ-EBhQAOpHsl29WooNDX9EqCy4H_65MwnsMyLYNVsa41iiCRh7_u2b-G1V7pSg6XfoA==.png,7.5880162715911865
oos22md20y,85_oos22md20y_QEq4XcJuhhsBJOiTr8qn0C9bTeL7Z3Bo3KK7inu7H0bJ-iblJoSX2UpFzFJUxR61U6c5VEQO1yAlDVXNbrt8adHxOp8uY-h2A_wOhpN6--Ra8-liC2p9mBFSoA4msw==.png,5.373870372772217
b0xbvwb0i6,86_b0xbvwb0i6_c0VU3ebGnXWLurcyg6IGHyNorhzjZyZCwkmHk_D7mZ40DnfAgcri8cQYgSREC95P-EBcaP0ONSXvYjYFilYoU4LbYly686UEitZVeU-zLSQIH-WMZl_2dHCR-k425A==.png,9.317165851593018
3p0g6r32a6,87_3p0g6r32a6_bR5yjwb4LIMKS5zD-Ar18r3ELMYY_jeJqhFRjSKaok_gZ6MQogfF9Uz_eOevoYbcZCxBH7GjD5G3fUcAL8G7RTe-Ce_MDXWirzjQGvIrJ8J689Ggu6hhJhEjDrTYjw==.png,12.667903423309326
p06t4mj2et,88_p06t4mj2et_EN7BGxbOOS7OI-MKZPSYWQ-jgTVoniWvOFb1ZCjz25AOo9d2ne8Y_uz3Mnzkyfu2N1eXHVZ3ZKLUx9X_vXmabAFg-FQBbmLR0NOZe9BO21mguz45A-D8wYqAg-O0Vg==.png,41.164146900177
7mwg1rhey9,89_7mwg1rhey9_391IJD09cXCjx1j1j_DqrFeILg9h3JTYejIykd5PJci-pA3ot2wHooO5F9XMNrNaY3OzYktBfCo7xpinGzcjRjrD-cpS-5Lb_Fe4wSvPjnX883N1qwZ8521eo3V40Q==.png,10.73279619216919
6j4e325p32,8_6j4e325p32_1od47r9yDVNQLA4u4q3omsdmeeMge7wItB9JAgUgtyVEgmuC_Ag0XVuGstPvlscSq_lUJ2wyBGVM6R6iLsm7LZBrJ7pdh65ULTaQf9jv2aCt6nVRrEOS72SoEVI81A==.png,7.845015048980713
m5xx96am5g,90_m5xx96am5g_LG2upsrcbxEi_BdCr7hF0JAVyc99ngXjW7EVzp5_tsFb1uTAJnNYmYqnSLKb9_GRmRp4mbwIAA0YqheZdutIts7GOHq8PGpWpnui5lz4qQmpfGPtauANYWl4STuf1A==.png,5.252082347869873
7tjg0xgoj2,91_7tjg0xgoj2_74nkEOiX4xn63pHF0R2irXBxjbt5bZdS3ICxx3zfdcAlf68AFgRyu0V1UjrmU_FPkZpLkQFtpOVg333JKdC9RUVjszv9FBB35TqsMFxT0ZGd35DDxEO3yzTZnnETVg==.png,11.350049018859863
bffuc3bloe,92_bffuc3bloe_LsN3ZMiaopnPqfZeOmP1L48_XdFcoQqn5QKFhninLvbOkns3QaGgcm2gwiHK0D3-wctL3G6EeRqlC3-ELei670pOMOKHuE9xPtmSiqve8bhjXpTbA26BoocMC77DWw==.png,8.437566041946411
v3f3qxjvar,93_v3f3qxjvar_J0ff-FdRIpQPalTwWby8Y_6V5E6IXy6a_qk89nFYidM0vksNU40oD9jqlMCV-RnWTtCw1_ssU_O9AilaoTzKz_Ml_zZAmoFXjGWnZahTfPQgpcTBbykeOyCBpx2Syw==.png,5.355921983718872
yx3vivm2gi,94_yx3vivm2gi_AdpjF49_W36-vUW5jnk6Uxz2Kh2sSIE7mdG3_7KEeg3l5pFCoD1elLTR2L-QkLGOaBUrKMoKBN1P13e2Tmf2YqcNydlLm8mCeUbgoh6PutBi0PG2CrpGjeR3JwQPrQ==.png,5.564538240432739
h23znxgfoo,95_h23znxgf00_u-5STEY87Fs0ovBJD9QasOSI96hn9WCV6S3tgf2HdbeM6juLK169teJHaH_2vHCPTM7vP4wQObIGA6jkW8i5inD2Tdk9xEWo5MNImC7S46dTUarFMTT1wnk2Uzfd-w==.png,6.539936304092407
f8b1gygivd,96_f8blgygivd_XZt-GaFiteDNsTjzrdH96e0rl2LP_BpR--SDH1Cb_tmhbZZFVYgaESo_bGIYUJlRyaEYGAKZFQd4rkAmeDJ1wDs3vo5sU2E1Ibmpz9rEZ1bBiIkAvr7YcQ8o_HyuJQ==.png,9.29398512840271
cyiw819vv6,97_cyiw8l9vv6_y9hdsNEO9X7lgZ5qnfcsWYuWA3xA_DqW2zIzb-vIBIpq9VP6JwOEkByJ7Nc4d90-x4edMjnG4lbU1UqW2ZAnJrJ876WVPOoPpo0p_nl2dxNye8vI5iGQmPLtn3-Z5g==.png,16.644575119018555
spgkqzgtqh,98_spgkqzgtqh_4RbDNM6v3gyz_QOIGOoVKUNZzKTKgVaHMiTHOcyRmL89UOw1paluSkeukoi0hhwG1FoxzFf21aRQH15ri7AjEQq5lJCgEVltxukWoKlCeTsk5dCLTd_Pck83GvkyUw==.png,12.804174184799194
a9tksyc0xi,99_a9tksyc0xi_lI4tLrQOl_z2ZDiK2HvCE4IC89NKrnA-dhJBRGSaXReoEfVUq6QyxZkjN65X6TYiXyW4YhXK7cTiW7OqjeXWwbsnMu9hPImTfgDVE5Ev2HP1MkGu_Sy9D97uOzu77A==.png,6.837672710418701
9py7j2eevm,9_9py7j2eevm_9_Ytj_0GtA6Be6nbNXmxsAu1HcxJ5ie3yYOhb_NEXqzSk0Tz0CMOCIy71ElTJofl9RriwOltkFhAmyV-QkOU2vUlYepJatPx3VR_qvbQFLI7_7X3XwPiJ2f-aweTOA==.png,7.820507764816284
